{
	"type":"object",
	"$schema": "http://json-schema.org/draft-03/schema",	
	"required":true,
	"properties":{
		"attachments": {
			"type":"array",
			"description": "Displays one to many attachments based on number of attachments attached to an object.",
			"required":true,
			"items":
				{
					"type":"object",				
					"required":false,
					"properties":{						
						"attachmentID": {
							"type":"string",
							"description":"Attachment Identifier",
							"required":true
						},
						"caption": {
							"type":"string",
							"description":"The caption of attachment.",
							"required":true
						},
						"fileName": {
							"type":"string",
							"description":"The original file name which is attached.",
							"required":true
						},
						"attachDate": {
							"type":"string",
							"description":"The date when attachment is added.",
							"required":true
						},
						"taskID": {
							"type":"string",
							"description":"The id of task with which attachment is associated.",
							"required":true
						},
						"messageID": {
							"type":"string",
							"description":"The id of message with which attachment is associated.",
							"required":true
						}
					},
					"links": {  
					  "description":"Details of individual form.",            
					  "type": "array",
					  "items": {
					  "description":"Defines the navigation link used for view and edit forms.",			  
						"type": "object",
						"properties": {
						  "rel": {
							"type": "array",
							"items": {                      
							  "type": "string",
							  "description":"The title used for the link."
							}
						  },
						  "href": {                    
							"type": "string",
							"description":"The URI."
						  }
						}
					  }
					},
					"method":
				{
						"type":"object",		
						"properties":
						{
							"pageSet": 
							{
								"type":"string",
								"description":"Defines the page set the action is associated with"
							},
							"page": 
							{
								"type":"string",
								"description":"Defines the page the action is associated with"
							},
							"type": 
							{
								"type":"string",
								"description":"Defines the REST verb to be used when using the uniform resource identifier for the RESTful call against the API",	
								"enum": ["GET", "POST", "DELETE","PUT"]
							},
							"uri": 
							{
								"type":"string",			
								"description":"Defines a valid uniform resource identifier that can be used to make RESTful call against the API"
							}
						},
						"required":["type","uri"]
				},
				"action":
				{
					"type":"object",
					"properties":
					{
						"caption": 
						{
							"type":"string",
							"description":"A label for a button or link."
						},
						"contentType": 
						{
							"type":"string",
							"description":"Defines the type of content to be passed when using the uniform resource identifier during the RESTful call against the API",
							"enum": ["application/xml", "application/json", "application/multipart/form-data","multipart/form-data","text/xml"]
						},
						"description": 
						{
							"type":"string",
							"description":"Describes the purpose for the uniform resource identifier"
						},
						"id": 
						{
							"description":"Defines a unique identifier for the action",
							"type":"string"
						},
						"hidden":
						{
							"description":"Indicates whether the action is viewable",
							"type":"string",							
							"pattern":"0|1"
						},
						"method":
						{
							"type":"array",	
							"description":"Defines the group of methods for the action in a sequential processing order. Methods can be skipped if processing is not needed.",							
							"items":{"$ref": "#/definitions/method"}
						}
					}					
				}
			}
			

		}
	}
}
